chisel-proj/test_run_dir/Alu_should_pass/Alu.vcd
$date
2024-07-07T11:16+0000
$end
$version
0.2
$end
$comment

$end
$timescale 1ns  $end
$scope module Alu $end
 $var wire 32 ! io_in_operand_left $end
 $var wire 32 " res $end
 $var wire 1 # clock $end
 $var wire 32 $ left $end
 $var wire 1 % reset $end
 $var wire 32 & io_in_operand_right $end
 $var wire 4 ' io_in_op_opType $end
 $var wire 3 ( io_in_op_opFunc $end
 $var wire 32 ) right $end
 $var wire 32 * io_out_res $end
$upscope $end
$enddefinitions $end
$dumpvars
b00000000000000000000000000000000 *
b000 (
0#
0%
b00000000000000000000000000000000 &
b00000000000000000000000000000000 )
b00000000000000000000000000000000 "
b00000000000000000000000000000000 $
b00000000000000000000000000000000 !
b0000 '
$end
#0
1%
#1
1#
#6
b00000000000000000000000000000001 !
0#
b00000000000000000000000000000001 $
0%
b00000000000000000000000000000010 &
b0011 '
b00000000000000000000000000000010 )
#11
1#
#16
b00000000000000000000000000000011 "
0#
b001 (
b00000000000000000000000000000011 *
#21
1#
#26
b00000000000000000000000000000001 "
0#
b010 (
b00000000000000000000000000000001 *
#31
1#
#36
b11111111111111111111111111111111 "
0#
b011 (
b11111111111111111111111111111111 *
#41
1#
#46
b00000000000000000000000000000010 "
0#
b100 (
b00000000000000000000000000000010 *
#51
1#
#56
b00000000000000000000000000001111 !
b00000000000000000000000000000000 "
0#
b00000000000000000000000000001111 $
b00000000000000000000000000001010 &
b0001 '
b000 (
b00000000000000000000000000001010 )
b00000000000000000000000000000000 *
#61
1#
#66
b00000000000000000000000000001111 "
0#
b001 (
b00000000000000000000000000001111 *
#71
1#
#76
b00000000000000000000000000000101 "
0#
b010 (
b00000000000000000000000000000101 *
#81
1#
#86
b00000000000000000000000000001010 "
0#
b011 (
b00000000000000000000000000001010 *
#91
1#
#96
b00000000000000001000000000000000 !
b00000000000000000000000000000000 "
0#
b00000000000000001000000000000000 $
b00000000000000000000000000000010 &
b0010 '
b000 (
b00000000000000000000000000000010 )
b00000000000000000000000000000000 *
#101
1#
#106
b00000000000000000010000000000000 "
0#
b001 (
b00000000000000000010000000000000 *
#111
1#
#116
b00000000000000100000000000000000 "
0#
b010 (
b00000000000000100000000000000000 *
