chisel-proj/test_run_dir/Fetch_should_Pass/FetchElaborate.vcd
$date
2024-07-08T06:19+0000
$end
$version
0.2
$end
$comment

$end
$timescale 1ns  $end
$scope module FetchElaborate $end
 $var wire 1 * io_in_ack $end
 $var wire 1 5 io_out_req $end
 $var wire 1 6 bus $end
 $var wire 1 R reset $end
 $var wire 32 X io_out_bits_inst $end
 $var wire 1 b baseRam $end
 $var wire 32 e io_out_bits_pc $end
 $var wire 1 i clock $end
 $var wire 1 t fetchStage $end
  $scope module baseRam $end
   $var wire 1 & io_in_ce $end
   $var wire 32 = mem $end
   $var wire 32 @ initOut_rData $end
   $var wire 1 J clock $end
   $var wire 20 P io_in_addr $end
   $var wire 32 S io_in_wData $end
   $var wire 32 Z io_out_rData $end
   $var wire 1 d io_in_we $end
    $scope module mem $end
     $var wire 32 n MPORT $end
      $scope module io_out_rData_MPORT $end
       $var wire 1 ! clk $end
       $var wire 32 K data $end
       $var wire 1 ` en $end
       $var wire 22 k addr $end
      $upscope $end
      $scope module MPORT $end
       $var wire 1 9 valid $end
       $var wire 22 : addr $end
       $var wire 32 B data $end
       $var wire 1 L clk $end
       $var wire 32 M pipeline_data_0 $end
       $var wire 1 Q pipeline_valid_0 $end
       $var wire 22 [ pipeline_addr_0 $end
       $var wire 1 \ en $end
       $var wire 1 _ mask $end
      $upscope $end
    $upscope $end
  $upscope $end
  $scope module bus $end
   $var wire 1 " io_sram_out_we $end
   $var wire 1 $ sramReqReg_we $end
   $var wire 32 ' sramReqReg_res_wData $end
   $var wire 1 ( io_in_req $end
   $var wire 1 ) reset $end
   $var wire 1 , io_out_rvalid $end
   $var wire 20 - io_sram_out_addr $end
   $var wire 32 / io_out_inst $end
   $var wire 1 0 outReg_rvalid $end
   $var wire 32 3 io_sram_out_wData $end
   $var wire 1 4 sramReqReg_sramReadWord_we $end
   $var wire 1 8 clock $end
   $var wire 1 ; io_sram_out_ce $end
   $var wire 1 < initOut_rrdy $end
   $var wire 20 ? sramReqReg_sramReadWord_addr $end
   $var wire 1 C sramReqReg_sramReadWord_ce $end
   $var wire 1 D io_out_rrdy $end
   $var wire 32 E sramReqReg_wData $end
   $var wire 1 G sramReqReg_res_we $end
   $var wire 1 H initOut_rvalid $end
   $var wire 32 N outReg_inst $end
   $var wire 1 T sramReqReg_res_ce $end
   $var wire 1 Y stat $end
   $var wire 1 c sramReqReg_ce $end
   $var wire 1 g outReg_rrdy $end
   $var wire 32 h sramReqReg_sramReadWord_wData $end
   $var wire 32 j io_in_pc $end
   $var wire 32 o io_sram_in_rData $end
   $var wire 20 p sramReqReg_res_addr $end
   $var wire 32 q initOut_inst $end
   $var wire 20 r sramReqReg_addr $end
  $upscope $end
  $scope module fetchStage $end
   $var wire 1 # io_aside_out_req $end
   $var wire 32 % io_aside_out_pc $end
   $var wire 1 + outReg_req $end
   $var wire 1 . io_aside_in_rrdy $end
   $var wire 1 1 io_aside_out_res_req $end
   $var wire 1 2 io_aside_in_rvalid $end
   $var wire 1 7 reset $end
   $var wire 32 > io_aside_in_inst $end
   $var wire 32 A io_aside_out_res_pc $end
   $var wire 32 F io_out_bits_inst $end
   $var wire 1 I clock $end
   $var wire 1 O io_aside_out_res_1_req $end
   $var wire 32 U io_out_bits_pc $end
   $var wire 32 V outReg_res_bits_pc $end
   $var wire 3 W stat $end
   $var wire 32 ] outReg_bits_pc $end
   $var wire 32 ^ io_aside_out_res_1_pc $end
   $var wire 32 a outReg_res_bits_inst $end
   $var wire 1 f io_out_req $end
   $var wire 32 l outReg_bits_inst $end
   $var wire 1 m outReg_res_req $end
   $var wire 1 s io_in_ack $end
  $upscope $end
$upscope $end
$enddefinitions $end
$dumpvars
b00000000000000000000 p
00
01
02
04
b00000000000000000000000000000000 '
05
b00000000000000000000 r
06
07
08
09
b00000000000000000000000000000000 %
0;
0<
0C
0D
0G
0H
b00000000000000000000000000000000 3
0I
0J
0L
b00000000000000000000000000000000 /
0O
b00000000000000000000 P
0Q
0R
0T
0Y
0\
b000 W
0`
0b
b00000000000000000000 ?
0c
0d
0f
b0000000000000000000000 :
0g
0i
0m
b00000000000000000000000000000000 j
0s
b00000000000000000000000000000000 l
0t
b00000000000000000000000000000000 h
b00000000000000000000000000000000 e
b00000000000000000000000000000000 ^
1_
b00000000000000000000000000000000 a
b0000000000000000000000 [
b00000011100000000000100000000001 =
b00000000000000000000000000000000 o
b00000000000000000000 -
b00000000000000000000000000000000 n
b00000000000000000000000000000000 q
b00000000000000000000000000000000 K
b00000000000000000000000000000000 M
b00000000000000000000000000000000 F
b0000000000000000000000 k
b00000000000000000000000000000000 B
b00000000000000000000000000000000 E
b00000000000000000000000000000000 >
b00000000000000000000000000000000 A
b00000000000000000000000000000000 @
0!
b00000000000000000000000000000000 Z
0"
b00000000000000000000000000000000 ]
0#
0$
b00000000000000000000000000000000 V
0&
b00000000000000000000000000000000 X
0(
b00000000000000000000000000000000 S
0)
0*
b00000000000000000000000000000000 U
0+
0,
b00000000000000000000000000000000 N
0.
$end
#0
1`
1"
1d
1G
1)
b00000011100000000000100000000001 K
1O
b00000011100000000000100000000001 o
1R
14
1T
17
b00000011100000000000100000000001 Z
1<
#1
0`
1!
1c
1$
1D
1&
1g
1I
1i
1J
1L
1.
b00000000000000000000000000000000 o
18
b00000000000000000000000000000000 Z
1;
#6
0!
0R
1s
07
08
0)
0I
0i
1*
0J
0L
#11
1!
1#
b10000000000000000000000000000000 %
b10000000000000000000000000000000 e
1(
1I
1i
1J
b10000000000000000000000000000000 j
1L
b10000000000000000000000000000000 U
b001 W
18
b10000000000000000000000000000000 ]
b10000000000000000000000000000000 ^
#16
0!
08
0I
0i
0J
0L
#21
1`
1!
0#
0c
0D
b00000000000000000000000000000000 %
0&
0g
0(
1I
1i
1J
b00000000000000000000000000000000 j
1L
0.
b00000011100000000000100000000001 o
b010 W
18
1Y
b00000011100000000000100000000001 Z
0;
#26
0!
08
0I
0i
0J
0L
#31
1!
1D
1g
1I
1i
1J
1,
1L
1.
b00000011100000000000100000000001 N
b00000011100000000000100000000001 /
10
12
18
0Y
b00000011100000000000100000000001 >
#36
0!
08
0I
0i
0J
0L
#41
1!
b00000011100000000000100000000001 F
1f
1I
1i
1J
1+
0,
1L
b00000011100000000000100000000001 l
00
02
15
b011 W
18
b00000011100000000000100000000001 X
#46
0!
08
0I
0i
0J
0L
#51
1!
05
0f
b100 W
18
1I
1i
1J
0+
1L
#56
0!
08
0I
0i
0J
0L
#61
1!
1#
b10000000000000000000000000000100 %
b10000000000000000000000000000100 e
1(
1I
1i
1J
b10000000000000000000000000000100 j
1L
b10000000000000000000000000000100 U
b001 W
18
b10000000000000000000000000000100 ]
b10000000000000000000000000000100 ^
b00000000000000000001 ?
#66
0!
08
0I
0i
0J
0L
#71
0D
1I
1J
b00000011100000000000110000000010 K
1L
b00000000000000000001 P
b010 W
1Y
b00000011100000000000110000000010 Z
1!
0#
b00000000000000000000000000000000 %
0g
0(
1i
b00000000000000000000000000000000 j
b0000000000000000000001 k
b00000000000000000001 -
0.
b00000011100000000000110000000010 o
b00000000000000000001 r
18
b0000000000000000000001 :
b00000000000000000000 ?
#76
0!
08
0I
0i
0J
0L
#81
1!
1D
1g
1I
1i
1J
1,
1L
1.
b00000011100000000000110000000010 N
b00000011100000000000110000000010 /
10
12
18
0Y
b0000000000000000000001 [
b00000011100000000000110000000010 >
#86
0!
08
0I
0i
0J
0L
#91
1!
b00000011100000000000110000000010 F
1f
1I
1i
1J
1+
0,
1L
b00000011100000000000110000000010 l
00
02
15
b011 W
18
b00000011100000000000110000000010 X
#96
0!
08
0I
0i
0J
0L
#101
1!
05
0f
b100 W
18
1I
1i
1J
0+
1L
#106
0!
08
0I
0i
0J
0L
#111
1!
1#
b10000000000000000000000000001000 %
b10000000000000000000000000001000 e
1(
1I
1i
1J
b10000000000000000000000000001000 j
1L
b10000000000000000000000000001000 U
b001 W
18
b10000000000000000000000000001000 ]
b10000000000000000000000000001000 ^
b00000000000000000010 ?
#116
0!
08
0I
0i
0J
0L
#121
0D
1I
1J
b00000000000111000000100000100011 K
1L
b00000000000000000010 P
b010 W
1Y
b00000000000111000000100000100011 Z
1!
0#
b00000000000000000000000000000000 %
0g
0(
1i
b00000000000000000000000000000000 j
b0000000000000000000010 k
b00000000000000000010 -
0.
b00000000000111000000100000100011 o
b00000000000000000010 r
18
b0000000000000000000010 :
b00000000000000000000 ?
#126
0!
08
0I
0i
0J
0L
#131
1!
1D
1g
1I
1i
1J
1,
1L
1.
b00000000000111000000100000100011 N
b00000000000111000000100000100011 /
10
12
18
0Y
b0000000000000000000010 [
b00000000000111000000100000100011 >
#136
0!
08
0I
0i
0J
0L
#141
1!
b00000000000111000000100000100011 F
1f
1I
1i
1J
1+
0,
1L
b00000000000111000000100000100011 l
00
02
15
b011 W
18
b00000000000111000000100000100011 X
#146
0!
08
0I
0i
0J
0L
#151
1!
05
0f
b100 W
18
1I
1i
1J
0+
1L
#156
0!
08
0I
0i
0J
0L
#161
1!
1#
b10000000000000000000000000001100 %
b10000000000000000000000000001100 e
1(
1I
1i
1J
b10000000000000000000000000001100 j
1L
b10000000000000000000000000001100 U
b001 W
18
b10000000000000000000000000001100 ]
b10000000000000000000000000001100 ^
b00000000000000000011 ?
#166
0!
08
0I
0i
0J
0L
#171
1!
0#
0D
b00000000000000000000000000000000 %
0g
0(
1I
1i
1J
b00000000000000000000000000000000 j
b0000000000000000000011 k
1L
b00000000000000000011 -
0.
b00000000000000000011 P
b00000000000000000011 r
b010 W
18
1Y
b0000000000000000000011 :
b00000000000000000000 ?
#176
0!
08
0I
0i
0J
0L
#181
1!
1D
1g
1I
1i
1J
1,
1L
1.
10
12
18
0Y
b0000000000000000000011 [
#186
0!
08
0I
0i
0J
0L
#191
1!
1f
1I
1i
1J
1+
0,
1L
00
02
15
b011 W
18
#196
0!
08
0I
0i
0J
0L
#201
1!
05
0f
b100 W
18
1I
1i
1J
0+
1L
#206
0!
08
0I
0i
0J
0L
#211
1!
1#
b10000000000000000000000000010000 %
b10000000000000000000000000010000 e
1(
1I
1i
1J
b10000000000000000000000000010000 j
1L
b10000000000000000000000000010000 U
b001 W
18
b10000000000000000000000000010000 ]
b10000000000000000000000000010000 ^
b00000000000000000100 ?
#216
0!
08
0I
0i
0J
0L
#221
1!
0#
0D
b00000000000000000000000000000000 %
0g
0(
1I
1i
1J
b00000000000000000000000000000000 j
b0000000000000000000100 k
1L
b00000000000000000100 -
0.
b00000000000000000100 P
b00000000000000000100 r
b010 W
18
1Y
b0000000000000000000100 :
b00000000000000000000 ?
#226
0!
08
0I
0i
0J
0L
#231
1!
1D
1g
1I
1i
1J
1,
1L
1.
10
12
18
0Y
b0000000000000000000100 [
#236
0!
08
0I
0i
0J
0L
#241
1!
1f
1I
1i
1J
1+
0,
1L
00
02
15
b011 W
18
#246
0!
08
0I
0i
0J
0L
#251
1!
05
0f
b100 W
18
1I
1i
1J
0+
1L
#256
0!
08
0I
0i
0J
0L
#261
1!
1#
b10000000000000000000000000010100 %
b10000000000000000000000000010100 e
1(
1I
1i
1J
b10000000000000000000000000010100 j
1L
b10000000000000000000000000010100 U
b001 W
18
b10000000000000000000000000010100 ]
b10000000000000000000000000010100 ^
b00000000000000000101 ?
#266
0!
08
0I
0i
0J
0L
#271
1!
0#
0D
b00000000000000000000000000000000 %
0g
0(
1I
1i
1J
b00000000000000000000000000000000 j
b0000000000000000000101 k
1L
b00000000000000000101 -
0.
b00000000000000000101 P
b00000000000000000101 r
b010 W
18
1Y
b0000000000000000000101 :
b00000000000000000000 ?
#276
0!
08
0I
0i
0J
0L
#281
1!
1D
1g
1I
1i
1J
1,
1L
1.
10
12
18
0Y
b0000000000000000000101 [
#286
0!
08
0I
0i
0J
0L
#291
1!
1f
1I
1i
1J
1+
0,
1L
00
02
15
b011 W
18
#296
0!
08
0I
0i
0J
0L
#301
1!
05
0f
b100 W
18
1I
1i
1J
0+
1L
#306
0!
08
0I
0i
0J
0L
#311
1!
1#
b10000000000000000000000000011000 %
b10000000000000000000000000011000 e
1(
1I
1i
1J
b10000000000000000000000000011000 j
1L
b10000000000000000000000000011000 U
b001 W
18
b10000000000000000000000000011000 ]
b10000000000000000000000000011000 ^
b00000000000000000110 ?
#316
0!
08
0I
0i
0J
0L
#321
1!
0#
0D
b00000000000000000000000000000000 %
0g
0(
1I
1i
1J
b00000000000000000000000000000000 j
b0000000000000000000110 k
1L
b00000000000000000110 -
0.
b00000000000000000110 P
b00000000000000000110 r
b010 W
18
1Y
b0000000000000000000110 :
b00000000000000000000 ?
#326
0!
08
0I
0i
0J
0L
#331
1!
1D
1g
1I
1i
1J
1,
1L
1.
10
12
18
0Y
b0000000000000000000110 [
#336
0!
08
0I
0i
0J
0L
#341
1!
1f
1I
1i
1J
1+
0,
1L
00
02
15
b011 W
18
#346
0!
08
0I
0i
0J
0L
#351
1!
05
0f
b100 W
18
1I
1i
1J
0+
1L
#356
0!
08
0I
0i
0J
0L
#361
1!
1#
b10000000000000000000000000011100 %
b10000000000000000000000000011100 e
1(
1I
1i
1J
b10000000000000000000000000011100 j
1L
b10000000000000000000000000011100 U
b001 W
18
b10000000000000000000000000011100 ]
b10000000000000000000000000011100 ^
b00000000000000000111 ?
#366
0!
08
0I
0i
0J
0L
#371
1!
0#
0D
b00000000000000000000000000000000 %
0g
0(
1I
1i
1J
b00000000000000000000000000000000 j
b0000000000000000000111 k
1L
b00000000000000000111 -
0.
b00000000000000000111 P
b00000000000000000111 r
b010 W
18
1Y
b0000000000000000000111 :
b00000000000000000000 ?
#376
0!
08
0I
0i
0J
0L
#381
1!
1D
1g
1I
1i
1J
1,
1L
1.
10
12
18
0Y
b0000000000000000000111 [
#386
0!
08
0I
0i
0J
0L
#391
1!
1f
1I
1i
1J
1+
0,
1L
00
02
15
b011 W
18
#396
0!
08
0I
0i
0J
0L
#401
1!
05
0f
b100 W
18
1I
1i
1J
0+
1L
#406
0!
08
0I
0i
0J
0L
#411
1!
1#
b10000000000000000000000000100000 %
b10000000000000000000000000100000 e
1(
1I
1i
1J
b10000000000000000000000000100000 j
1L
b10000000000000000000000000100000 U
b001 W
18
b10000000000000000000000000100000 ]
b10000000000000000000000000100000 ^
b00000000000000001000 ?
#416
0!
08
0I
0i
0J
0L
#421
1!
0#
0D
b00000000000000000000000000000000 %
0g
0(
1I
1i
1J
b00000000000000000000000000000000 j
b0000000000000000001000 k
1L
b00000000000000001000 -
0.
b00000000000000001000 P
b00000000000000001000 r
b010 W
18
1Y
b0000000000000000001000 :
b00000000000000000000 ?
#426
0!
08
0I
0i
0J
0L
#431
1!
1D
1g
1I
1i
1J
1,
1L
1.
10
12
18
0Y
b0000000000000000001000 [
#436
0!
08
0I
0i
0J
0L
#441
1!
1f
1I
1i
1J
1+
0,
1L
00
02
15
b011 W
18
#446
0!
08
0I
0i
0J
0L
#451
1!
05
0f
b100 W
18
1I
1i
1J
0+
1L
#456
0!
08
0I
0i
0J
0L
#461
1!
1#
b10000000000000000000000000100100 %
b10000000000000000000000000100100 e
1(
1I
1i
1J
b10000000000000000000000000100100 j
1L
b10000000000000000000000000100100 U
b001 W
18
b10000000000000000000000000100100 ]
b10000000000000000000000000100100 ^
b00000000000000001001 ?
#466
0!
08
0I
0i
0J
0L
#471
1!
0#
0D
b00000000000000000000000000000000 %
0g
0(
1I
1i
1J
b00000000000000000000000000000000 j
b0000000000000000001001 k
1L
b00000000000000001001 -
0.
b00000000000000001001 P
b00000000000000001001 r
b010 W
18
1Y
b0000000000000000001001 :
b00000000000000000000 ?
#476
0!
08
0I
0i
0J
0L
#481
1!
1D
1g
1I
1i
1J
1,
1L
1.
10
12
18
0Y
b0000000000000000001001 [
#486
0!
08
0I
0i
0J
0L
#491
1!
1f
1I
1i
1J
1+
0,
1L
00
02
15
b011 W
18
#496
0!
08
0I
0i
0J
0L
#501
1!
05
0f
b100 W
18
1I
1i
1J
0+
1L
